<?xml version="1.0" encoding="UTF-8" standalone="no"?>
<svg width="15px" height="12px" viewBox="0 0 15 12" version="1.1" xmlns="http://www.w3.org/2000/svg" xmlns:xlink="http://www.w3.org/1999/xlink" xmlns:sketch="http://www.bohemiancoding.com/sketch/ns">
    <!-- Generator: Sketch 3.5.1 (25234) - http://www.bohemiancoding.com/sketch -->
    <title>arrow_poiner</title>
    <desc>Created with Sketch.</desc>
    <defs></defs>
    <g id="Page-1" stroke="none" stroke-width="1" fill="none" fill-rule="evenodd" sketch:type="MSPage">
        <g id="resources" sketch:type="MSArtboardGroup" transform="translate(-372.000000, -174.000000)" fill="#333333">
            <path d="M372.686107,183.915223 L379.836382,174.137446 L386.686107,183.915223 L386.686107,185.137446 C386.686107,185.137446 382.156714,183.670225 379.836382,183.670225 C377.490048,183.670225 372.686107,185.137446 372.686107,185.137446 L372.686107,183.915223 Z" id="arrow_poiner" sketch:type="MSShapeGroup"></path>
        </g>
    </g>
</svg>