<?xml version="1.0" encoding="UTF-8" standalone="no"?>
<svg width="12px" height="11px" viewBox="0 0 12 11" version="1.1" xmlns="http://www.w3.org/2000/svg" xmlns:xlink="http://www.w3.org/1999/xlink" xmlns:sketch="http://www.bohemiancoding.com/sketch/ns">
    <!-- Generator: Sketch 3.5.1 (25234) - http://www.bohemiancoding.com/sketch -->
    <title>bus_on_card_small</title>
    <desc>Created with Sketch.</desc>
    <defs></defs>
    <g id="Page-1" stroke="none" stroke-width="1" fill="none" fill-rule="evenodd" sketch:type="MSPage">
        <g id="resources" sketch:type="MSArtboardGroup" transform="translate(-257.000000, -274.000000)" fill="#9CC8FF">
            <path d="M266.25272,282.403654 L264.969324,282.403654 C264.691814,282.403654 264.452113,282.19445 264.452113,281.936062 L264.452113,281.927057 C264.452113,281.668669 264.691814,281.459465 264.969324,281.459465 L266.25272,281.459465 L266.25272,282.403654 Z M261.5486,281.936062 C261.5486,282.19445 261.309613,282.403654 261.032103,282.403654 L259.747994,282.403654 L259.748707,281.459465 L261.032103,281.459465 C261.309613,281.459465 261.551454,281.668669 261.551454,281.927057 L261.5486,281.936062 Z M268.734617,276.851435 L267.564651,276.851435 L267.564651,275.63639 L266.25058,274.710212 L266.25058,279.126356 C266.25058,280.249961 265.312467,280.245112 264.155342,280.245112 L261.801141,280.245112 C260.643303,280.245112 259.70519,280.249961 259.70519,279.126356 L259.70519,274.683195 L258.489567,275.63639 L258.489567,276.782163 L257.265383,276.782163 C257.119137,276.782163 257,276.897848 257,277.04055 L257,278.453024 C257,278.535458 257.045657,278.610273 257.120564,278.648373 C257.383806,278.784148 258.513822,278.667769 258.513822,279.086177 L258.520243,282.493016 L258.985375,283.162191 L258.993936,283.162191 L259.237203,284.527559 C259.237203,284.788718 259.454789,285 259.723025,285 L261.063492,285 L261.11343,283.608309 L264.83806,283.608309 L264.88657,285 L266.355449,285 C266.623685,285 266.84127,284.788718 266.84127,284.527559 L267.084537,283.09084 C267.084537,283.0756 267.518994,282.477776 267.518994,282.477776 L267.516141,279.086177 C267.516141,278.667769 268.610487,278.783455 268.87801,278.648373 C268.953629,278.610273 269,278.534765 269,278.452331 L269,277.248369 C269,277.105667 268.880863,276.851435 268.734617,276.851435 Z M265.448725,276.023833 L265.450152,274.718732 C265.474407,274.208884 265.057072,274.005222 264.5313,274.003837 C263.516141,274.001758 262.456037,273.998987 261.434457,274.000373 C260.902265,274.000373 260.482076,274.213041 260.515605,274.729123 L260.520599,276.023833 L265.448725,276.023833 Z" id="bus_on_card_small" sketch:type="MSShapeGroup"></path>
        </g>
    </g>
</svg>