<?xml version="1.0" encoding="UTF-8" standalone="no"?>
<svg width="18px" height="17px" viewBox="0 0 18 17" version="1.1" xmlns="http://www.w3.org/2000/svg" xmlns:xlink="http://www.w3.org/1999/xlink" xmlns:sketch="http://www.bohemiancoding.com/sketch/ns">
    <!-- Generator: Sketch 3.5.1 (25234) - http://www.bohemiancoding.com/sketch -->
    <title>bus_on_card_big</title>
    <desc>Created with Sketch.</desc>
    <defs></defs>
    <g id="Page-1" stroke="none" stroke-width="1" fill="none" fill-rule="evenodd" sketch:type="MSPage">
        <g id="resources" sketch:type="MSArtboardGroup" transform="translate(-371.000000, -270.000000)" fill="#9CC8FF">
            <path d="M384.87908,282.891969 L382.953986,282.891969 C382.537721,282.891969 382.17817,282.571031 382.17817,282.174641 L382.17817,282.160826 C382.17817,281.764435 382.537721,281.443497 382.953986,281.443497 L384.87908,281.443497 L384.87908,282.891969 Z M377.8229,282.174641 C377.8229,282.571031 377.464419,282.891969 377.048154,282.891969 L375.12199,282.891969 L375.12306,281.443497 L377.048154,281.443497 C377.464419,281.443497 377.82718,281.764435 377.82718,282.160826 L377.8229,282.174641 Z M388.601926,274.374361 L386.846977,274.374361 L386.846977,272.510371 L384.875869,271.089529 L384.875869,277.864295 C384.875869,279.588008 383.4687,279.58057 381.733012,279.58057 L378.201712,279.58057 C376.464955,279.58057 375.057785,279.588008 375.057785,277.864295 L375.057785,271.048084 L373.23435,272.510371 L373.23435,274.26809 L371.398074,274.26809 C371.178705,274.26809 371,274.445563 371,274.66448 L371,276.831343 C371,276.957805 371.068486,277.072578 371.180845,277.131027 C371.575709,277.339318 373.270733,277.160782 373.270733,277.802658 L373.280364,283.029058 L373.978063,284.055635 L373.990904,284.055635 L374.355805,286.150233 C374.355805,286.550874 374.682183,286.875 375.084537,286.875 L377.095238,286.875 L377.170144,284.740019 L382.757089,284.740019 L382.829856,286.875 L385.033173,286.875 C385.435527,286.875 385.761905,286.550874 385.761905,286.150233 L386.126806,283.946176 C386.126806,283.922796 386.778491,283.005679 386.778491,283.005679 L386.774211,277.802658 C386.774211,277.160782 388.41573,277.338255 388.817014,277.131027 C388.930444,277.072578 389,276.956742 389,276.83028 L389,274.983293 C389,274.764375 388.821295,274.374361 388.601926,274.374361 Z M383.673087,273.104743 L383.675227,271.102601 C383.71161,270.320447 383.085607,270.008011 382.29695,270.005886 C380.774211,270.002698 379.184056,269.998447 377.651685,270.000572 C376.853398,270.000572 376.223114,270.326824 376.273408,271.118541 L376.280899,273.104743 L383.673087,273.104743 Z" id="bus_on_card_big" sketch:type="MSShapeGroup"></path>
        </g>
    </g>
</svg>