<?xml version="1.0" encoding="UTF-8" standalone="no"?>
<svg width="32px" height="32px" viewBox="0 0 32 32" version="1.1" xmlns="http://www.w3.org/2000/svg" xmlns:xlink="http://www.w3.org/1999/xlink" xmlns:sketch="http://www.bohemiancoding.com/sketch/ns">
    <!-- Generator: Sketch 3.5.1 (25234) - http://www.bohemiancoding.com/sketch -->
    <title>tram_station_on_card_selected</title>
    <desc>Created with Sketch.</desc>
    <defs></defs>
    <g id="Page-1" stroke="none" stroke-width="1" fill="none" fill-rule="evenodd" sketch:type="MSPage">
        <g id="resources" sketch:type="MSArtboardGroup" transform="translate(-754.000000, -232.000000)">
            <g id="tram_station_on_card_selected" sketch:type="MSLayerGroup" transform="translate(754.000000, 232.000000)">
                <rect id="Rectangle-1" stroke="#FFFFFF" fill="#F4AC15" sketch:type="MSShapeGroup" x="0" y="0" width="32" height="32" rx="3"></rect>
                <g id="Page-1" transform="translate(8.000000, 2.666667)" fill="#FFFFFF" sketch:type="MSShapeGroup">
                    <path d="M0.733371429,24.7272727 L3.39965714,24.7272727 L5.36537143,23.1506147 L2.95965714,22.5359654 L0.733371429,24.7272727 Z" id="Fill-1"></path>
                    <path d="M10.9337143,23.1355429 L12.9782857,24.7275082 L15.5771429,24.7275082 L13.3382857,22.522071 L10.9337143,23.1355429 Z" id="Fill-2"></path>
                    <g id="Group-10">
                        <g id="Group-5" transform="translate(4.000000, 0.000000)">
                            <path d="M2.23314286,2.37299394 L5.704,2.37299394 C6.72457143,1.88433593 7.032,1.21669957 7.032,0.182864069 L5.38171429,0.182864069 C5.38171429,0.96942684 5.11885714,1.39921039 3.968,1.39921039 C2.81714286,1.39921039 2.55542857,0.96942684 2.55542857,0.182864069 L0.905142857,0.182864069 C0.905142857,1.21669957 1.21257143,1.88433593 2.23314286,2.37299394" id="Fill-3"></path>
                        </g>
                        <path d="M11.2107429,5.08698874 C11.1387429,4.18738701 10.5616,3.83649524 9.69302857,3.83414026 C8.01645714,3.8294303 8.01302857,3.82589784 6.32502857,3.82707532 C5.44502857,3.82825281 4.86674286,4.17443463 4.80617143,5.10582857 L4.62445714,7.02513593 L11.3993143,7.02513593 L11.2107429,5.08698874 Z" id="Fill-6"></path>
                        <path d="M12.1410286,18.9350857 L10.7924571,18.9350857 C10.4964571,18.9350857 10.2576,18.687813 10.2576,18.3840208 L10.2576,16.9945835 C10.2576,16.6896139 10.4964571,16.4423411 10.7924571,16.4423411 L12.1410286,16.4423411 C12.4370286,16.4423411 12.6758857,16.6896139 12.6758857,16.9945835 L12.6758857,18.3840208 C12.6758857,18.687813 12.4370286,18.9350857 12.1410286,18.9350857 L12.1410286,18.9350857 Z M5.28388571,18.9350857 L3.93531429,18.9350857 C3.63931429,18.9350857 3.40045714,18.687813 3.40045714,18.3840208 L3.40045714,16.9945835 C3.40045714,16.6896139 3.63931429,16.4423411 3.93531429,16.4423411 L5.28388571,16.4423411 C5.57988571,16.4423411 5.81874286,16.6896139 5.81874286,16.9945835 L5.81874286,18.3840208 C5.81874286,18.687813 5.57988571,18.9350857 5.28388571,18.9350857 L5.28388571,18.9350857 Z M14.4210286,6.65858355 L12.5890286,5.00538874 L12.9696,11.2790511 C12.9696,13.1441939 11.8816,14.3051983 10.0701714,14.3051983 L5.93988571,14.3051983 C4.1296,14.3051983 3.0416,13.1441939 3.0416,11.2790511 L3.42217143,5.0760381 L1.51931429,6.65858355 L0.000457142857,15.0328866 C-0.0144,15.1824277 1.22331429,18.5406268 1.51931429,19.8664797 C1.57188571,20.1019775 2.38788571,20.9874494 2.38788571,20.9874494 C2.60502857,21.1970424 8.0416,22.3757091 8.0416,22.3757091 C8.0416,22.3757091 13.2758857,21.1970424 13.4918857,20.9874494 C13.4918857,20.9874494 14.3090286,20.103155 14.3616,19.8700121 C14.6644571,18.5453368 15.9284571,15.1671203 15.9170286,15.0505489 L14.4210286,6.65858355 Z" id="Fill-8"></path>
                    </g>
                </g>
            </g>
        </g>
    </g>
</svg>